<?xml version="1.0" encoding="utf-8"?>
<!-- Generator: Adobe Illustrator 24.1.2, SVG Export Plug-In . SVG Version: 6.00 Build 0)  -->
<svg version="1.1" id="Layer_1" xmlns="http://www.w3.org/2000/svg" xmlns:xlink="http://www.w3.org/1999/xlink" x="0px" y="0px"
	 viewBox="0 0 38 38" style="enable-background:new 0 0 38 38;" xml:space="preserve">
<style type="text/css">
	.st0{fill:#FFD300;}
	.st1{fill:#333333;}
	.st2{fill:#7BB1F8;}
	.st3{fill:#007BFF;}
	.st4{fill:#FFFFFF;}
	.st5{fill:#FFFFFD;}
</style>
<path class="st0" d="M22,7.5c-0.2-0.1-0.4-0.1-0.6,0l-2.7,2.7c-0.5-0.5-1.1-0.8-1.7-1L18,5.6c0.1-0.2-0.1-0.4-0.2-0.5
	c-0.2-0.1-0.4,0.1-0.5,0.2l-0.9,3.6c-0.3-0.1-0.7-0.1-1-0.1c-0.3,0-0.6,0-0.9,0.1l-1-3.7C13.3,5.1,13.1,5,12.9,5
	c-0.2,0.1-0.3,0.3-0.2,0.5l0.9,3.6c-0.6,0.2-1.2,0.6-1.7,1L9.2,7.5C9,7.4,8.8,7.4,8.6,7.5C8.5,7.7,8.5,7.9,8.6,8l2.6,2.6
	c-0.4,0.5-0.8,1.1-1,1.7l-3.6-0.9c-0.2-0.1-0.4,0.1-0.5,0.2c-0.1,0.2,0.1,0.4,0.2,0.5l3.7,1C10,13.5,10,13.8,10,14.1
	c0,0.3,0,0.7,0.1,1l-3.7,1c-0.2,0.1-0.3,0.3-0.2,0.5c0.1,0.2,0.2,0.3,0.4,0.3c0.1,0,0.1,0,0.1-0.1l3.6-1c0.2,0.5,0.4,0.9,0.7,1.3
	c0.1,0.1,1.4-0.2,2.4-0.6c0.5-0.2,1-2,3.5-4.1c0.8-0.7,2.1-0.9,2.3-1c0.2-0.1,0.5-0.2,0.4-0.4c-0.1-0.1-0.2-0.2-0.3-0.3L22,8
	C22.2,7.8,22.2,7.6,22,7.5z"/>
<path class="st1" d="M28.8,17.6c-0.5-3.8-3.8-6.8-7.7-6.8c-3.4,0-6.5,2.3-7.4,5.6c0,0-0.1,0-0.1,0c0,0,0,0-0.1,0c0,0,0,0,0,0
	c-0.2,0-0.3,0-0.5,0c-2.7,0-5,2.2-5,5c0,2.7,2.2,5,5,5h15.5c2.4,0,4.4-2,4.4-4.3C32.9,19.6,31.1,17.8,28.8,17.6z M28.4,25.5H12.9
	c-2.3,0-4.2-1.9-4.2-4.2s1.9-4.2,4.2-4.2c0.3,0,0.4,0,0.7,0.1c2.2,0.7,3.6,2.6,3.3,4.9c0,0.2,0.1,0.4,0.3,0.4c0.2,0,0.4-0.1,0.4-0.3
	c0.4-2.4-1-4.8-3.3-5.5c0.9-3,3.6-5,6.7-5c3.6,0,6.6,2.7,7,6.1c-2.2,0.3-3.8,2.1-3.8,4.3c0,0.2,0.2,0.4,0.4,0.4
	c0.2,0,0.4-0.2,0.4-0.4c0-2,1.6-3.5,3.5-3.6c2,0,3.6,1.6,3.6,3.6C31.9,23.9,30.3,25.5,28.4,25.5z"/>
<path class="st4" d="M28.4,25.5H12.9c-2.3,0-4.2-1.9-4.2-4.2s1.9-4.2,4.2-4.2c0.3,0,0.4,0,0.7,0.1c2.2,0.7,3.6,2.6,3.3,4.9
	c0,0.2,0.1,0.4,0.3,0.4c0.2,0,0.4-0.1,0.4-0.3c0.4-2.4-1-4.8-3.3-5.5c0.9-3,3.6-5,6.7-5c3.6,0,6.6,2.7,7,6.1
	c-2.2,0.3-3.8,2.1-3.8,4.3c0,0.2,0.2,0.4,0.4,0.4c0.2,0,0.4-0.2,0.4-0.4c0-2,1.6-3.5,3.5-3.6c2,0,3.6,1.6,3.6,3.6
	C31.9,23.9,30.3,25.5,28.4,25.5z"/>
<g>
	<g>
		<g>
			<path class="st3" d="M21.1,33c-1.8,0-3.3-1.5-3.3-3.3c0-1.5,1.9-4.7,2.5-5.8l0.7-1.2l0.7,1.2c0.6,1,2.5,4.3,2.5,5.8
				C24.4,31.5,22.9,33,21.1,33z"/>
		</g>
	</g>
</g>
</svg>
